<?xml version="1.0" encoding="UTF-8" standalone="no"?>
<svg
   xmlns:dc="http://purl.org/dc/elements/1.1/"
   xmlns:cc="http://creativecommons.org/ns#"
   xmlns:rdf="http://www.w3.org/1999/02/22-rdf-syntax-ns#"
   xmlns:svg="http://www.w3.org/2000/svg"
   xmlns="http://www.w3.org/2000/svg"
   xmlns:sodipodi="http://sodipodi.sourceforge.net/DTD/sodipodi-0.dtd"
   xmlns:inkscape="http://www.inkscape.org/namespaces/inkscape"
   version="1.1"
   id="pin-logo"
   x="0px"
   y="0px"
   viewBox="0 0 16.27 28.63"
   style="enable-background:new 0 0 16.27 28.63;"
   xml:space="preserve"
   sodipodi:docname="confini.svg"
   inkscape:version="0.92.3 (2405546, 2018-03-11)"><metadata
   id="metadata13"><rdf:RDF><cc:Work
       rdf:about=""><dc:format>image/svg+xml</dc:format><dc:type
         rdf:resource="http://purl.org/dc/dcmitype/StillImage" /><dc:title></dc:title></cc:Work></rdf:RDF></metadata><defs
   id="defs11" /><sodipodi:namedview
   pagecolor="#ffffff"
   bordercolor="#666666"
   borderopacity="1"
   objecttolerance="10"
   gridtolerance="10"
   guidetolerance="10"
   inkscape:pageopacity="0"
   inkscape:pageshadow="2"
   inkscape:window-width="1166"
   inkscape:window-height="668"
   id="namedview9"
   showgrid="false"
   inkscape:zoom="16.8404"
   inkscape:cx="8.1350002"
   inkscape:cy="13.206298"
   inkscape:window-x="817"
   inkscape:window-y="293"
   inkscape:window-maximized="0"
   inkscape:current-layer="pin-logo" />




<path
   d="M 7.6190105,25.999914 7.1023007,26.42034 6.7705436,25.764671"
   style="fill:none;stroke:#143362;stroke-width:0.69432229;stroke-linecap:butt;stroke-linejoin:miter;stroke-miterlimit:10;stroke-dasharray:none;stroke-opacity:1"
   id="path446"
   inkscape:connector-curvature="0" /><path
   d="M 6.3388883,24.908584 3.5323155,19.350148"
   style="fill:none;stroke:#143362;stroke-width:0.69432229;stroke-linecap:butt;stroke-linejoin:miter;stroke-miterlimit:10;stroke-dasharray:1.20413905, 0.90310429;stroke-dashoffset:0;stroke-opacity:1"
   id="path450"
   inkscape:connector-curvature="0" /><path
   d="M 3.3163458,18.922414 2.9847104,18.265119 3.2524829,17.525308"
   style="fill:none;stroke:#143362;stroke-width:0.69432229;stroke-linecap:butt;stroke-linejoin:miter;stroke-miterlimit:10;stroke-dasharray:none;stroke-opacity:1"
   id="path454"
   inkscape:connector-curvature="0" /><path
   d="M 3.7619579,16.117353 4.6953218,13.535867"
   style="fill:none;stroke:#143362;stroke-width:0.69432229;stroke-linecap:butt;stroke-linejoin:miter;stroke-miterlimit:10;stroke-dasharray:1.75765458, 1.31789412;stroke-dashoffset:0;stroke-opacity:1"
   id="path458"
   inkscape:connector-curvature="0" /><path
   d="M 4.9499331,12.832 5.2178272,12.090561 4.8617486,11.459741"
   style="fill:none;stroke:#143362;stroke-width:0.69432229;stroke-linecap:butt;stroke-linejoin:miter;stroke-miterlimit:10;stroke-dasharray:none;stroke-opacity:1"
   id="path462"
   inkscape:connector-curvature="0" /><path
   d="M 4.2530378,10.380401 1.7159606,5.8810935"
   style="fill:none;stroke:#143362;stroke-width:0.69432229;stroke-linecap:butt;stroke-linejoin:miter;stroke-miterlimit:10;stroke-dasharray:1.58216656, 1.18610471;stroke-dashoffset:0;stroke-opacity:1"
   id="path466"
   inkscape:connector-curvature="0" /><path
   d="M 1.4116598,5.3418771 1.0555801,4.7110575 1.6217401,4.4500742"
   style="fill:none;stroke:#143362;stroke-width:0.69432229;stroke-linecap:butt;stroke-linejoin:miter;stroke-miterlimit:10;stroke-dasharray:none;stroke-opacity:1"
   id="path470"
   inkscape:connector-curvature="0" /><path
   d="M 2.4446208,4.0704759 5.8746155,2.4895413"
   style="fill:none;stroke:#143362;stroke-width:0.69432229;stroke-linecap:butt;stroke-linejoin:miter;stroke-miterlimit:10;stroke-dasharray:1.34494564, 1.00853582;stroke-dashoffset:0;stroke-opacity:1"
   id="path474"
   inkscape:connector-curvature="0" /><path
   d="M 6.2861637,2.2998752 6.8517376,2.0388387 7.3031999,2.5405783"
   style="fill:none;stroke:#143362;stroke-width:0.69432229;stroke-linecap:butt;stroke-linejoin:miter;stroke-miterlimit:10;stroke-dasharray:none;stroke-opacity:1"
   id="path478"
   inkscape:connector-curvature="0" /><path
   d="m 7.9672478,3.2770694 4.8591152,5.3938282 1.814474,3.7770104"
   style="fill:none;stroke:#143362;stroke-width:0.69432229;stroke-linecap:butt;stroke-linejoin:miter;stroke-miterlimit:10;stroke-dasharray:1.36020546, 1.02032749;stroke-dashoffset:0;stroke-opacity:1"
   id="path482"
   inkscape:connector-curvature="0" /><path
   d="m 14.877046,12.938801 0.320276,0.666924 -0.580109,0.17937"
   style="fill:none;stroke:#143362;stroke-width:0.69432229;stroke-linecap:butt;stroke-linejoin:miter;stroke-miterlimit:10;stroke-dasharray:none;stroke-opacity:1"
   id="path486"
   inkscape:connector-curvature="0" /><path
   d="m 13.82011,14.030204 -1.461927,0.450238"
   style="fill:none;stroke:#143362;stroke-width:0.69432229;stroke-linecap:butt;stroke-linejoin:miter;stroke-miterlimit:10;stroke-dasharray:1.27072736, 0.95304554;stroke-dashoffset:0;stroke-opacity:1"
   id="path490"
   inkscape:connector-curvature="0" /><path
   d="m 11.959206,14.603527 -0.580046,0.178554 -0.0069,0.815133"
   style="fill:none;stroke:#143362;stroke-width:0.69432229;stroke-linecap:butt;stroke-linejoin:miter;stroke-miterlimit:10;stroke-dasharray:none;stroke-opacity:1"
   id="path494"
   inkscape:connector-curvature="0" /><path
   d="m 11.421824,16.286091 -0.07009,2.495066 -0.03579,2.684983"
   style="fill:none;stroke:#143362;stroke-width:0.61523616;stroke-linecap:butt;stroke-linejoin:miter;stroke-miterlimit:10;stroke-dasharray:1.16716598, 0.87522084;stroke-dashoffset:0;stroke-opacity:1"
   id="path498"
   inkscape:connector-curvature="0"
   sodipodi:nodetypes="ccc" /><path
   d="m 11.316354,22.180992 -0.0069,0.815946 -0.516707,0.420425"
   style="fill:none;stroke:#143362;stroke-width:0.69432229;stroke-linecap:butt;stroke-linejoin:miter;stroke-miterlimit:10;stroke-dasharray:none;stroke-opacity:1"
   id="path502"
   inkscape:connector-curvature="0" /><path
   d="M 9.8405716,24.191981 8.0952935,25.612633"
   style="fill:none;stroke:#143362;stroke-width:0.69432229;stroke-linecap:butt;stroke-linejoin:miter;stroke-miterlimit:10;stroke-dasharray:1.70355155, 1.27766368;stroke-dashoffset:0;stroke-opacity:1"
   id="path506"
   inkscape:connector-curvature="0" /></svg>