<?xml version="1.0" encoding="UTF-8" standalone="no"?>
<!-- Created with Inkscape (http://www.inkscape.org/) -->

<svg
   xmlns:dc="http://purl.org/dc/elements/1.1/"
   xmlns:cc="http://creativecommons.org/ns#"
   xmlns:rdf="http://www.w3.org/1999/02/22-rdf-syntax-ns#"
   xmlns:svg="http://www.w3.org/2000/svg"
   xmlns="http://www.w3.org/2000/svg"
   xmlns:sodipodi="http://sodipodi.sourceforge.net/DTD/sodipodi-0.dtd"
   xmlns:inkscape="http://www.inkscape.org/namespaces/inkscape"
   width="50"
   height="50"
   viewBox="0 0 13.229166 13.229167"
   version="1.1"
   id="svg1947"
   inkscape:version="0.92.3 (2405546, 2018-03-11)"
   sodipodi:docname="sat.svg">
  <defs
     id="defs1941" />
  <sodipodi:namedview
     id="base"
     pagecolor="#ffffff"
     bordercolor="#666666"
     borderopacity="1.0"
     inkscape:pageopacity="0.0"
     inkscape:pageshadow="2"
     inkscape:zoom="6.78125"
     inkscape:cx="52.657663"
     inkscape:cy="-1.6947092"
     inkscape:document-units="mm"
     inkscape:current-layer="layer1"
     showgrid="false"
     units="px"
     inkscape:window-width="2501"
     inkscape:window-height="1385"
     inkscape:window-x="59"
     inkscape:window-y="27"
     inkscape:window-maximized="1" />
  <metadata
     id="metadata1944">
    <rdf:RDF>
      <cc:Work
         rdf:about="">
        <dc:format>image/svg+xml</dc:format>
        <dc:type
           rdf:resource="http://purl.org/dc/dcmitype/StillImage" />
        <dc:title></dc:title>
      </cc:Work>
    </rdf:RDF>
  </metadata>
  <g
     inkscape:label="Layer 1"
     inkscape:groupmode="layer"
     id="layer1"
     transform="translate(0,-283.77082)">
    <path
       d="m 5.4376733,292.10717 c -0.5047965,-0.50356 -1.0139502,-1.01335 -1.5181245,-1.51752 -0.7039766,0.7071 -1.4521462,1.45837 -2.1897345,2.19845 0.4929704,0.4936 0.9983896,0.99901 1.5131452,1.51316 0.7419453,-0.74258 1.4814009,-1.48079 2.1947138,-2.19409 m 1.3295261,-4.3801 c 0.5060415,0.50043 1.0158176,1.00337 1.5112781,1.49386 0.7344759,-0.73948 1.4795334,-1.49014 2.2121425,-2.22834 -0.478655,-0.47866 -0.9846963,-0.98345 -1.4944724,-1.4926 -0.7394556,0.73884 -1.4851354,1.48388 -2.2289482,2.22708 m -3.1196557,1.182 c 1.1452847,1.14279 2.3092422,2.30489 3.4557718,3.45017 0.4817665,-0.48425 0.9915427,-0.99465 1.4870031,-1.49198 -1.1378158,-1.13782 -2.301151,-2.2999 -3.4507927,-3.44954 -0.4929704,0.49297 -0.9983894,0.99776 -1.4919822,1.49135 m -3.02317802,3.74024 c 0.50541902,-0.5185 1.00959332,-1.03885 1.51812452,-1.55485 0.3915132,-0.39713 0.7886282,-0.78801 1.2174875,-1.21563 -0.2246999,-0.21038 -0.4444202,-0.40396 -0.6498246,-0.61124 -0.2464851,-0.24897 -0.2439954,-0.46433 0.00374,-0.71392 0.6877932,-0.69154 1.3774538,-1.3812 2.0689817,-2.06899 0.2477299,-0.24649 0.4662054,-0.24649 0.7139356,10e-4 0.2060265,0.20664 0.4014719,0.42326 0.6137232,0.64857 0.8321984,-0.83468 1.6320308,-1.63825 2.434352,-2.43994 0.1045701,-0.10463 0.220343,-0.19856 0.3305143,-0.29691 h 0.2664033 c 0.100212,0.084 0.2066494,0.16179 0.2993922,0.25333 0.6348866,0.63178 1.2679056,1.26542 1.9009246,1.89907 0.376574,0.37657 0.374707,0.53963 -0.0093,0.92431 -0.740078,0.74007 -1.4776665,1.4814 -2.222724,2.21649 -0.065977,0.0653 -0.1749056,0.0872 -0.2825865,0.13763 0.3006373,0.29315 0.5004397,0.48176 0.6940174,0.6772 0.2657811,0.27013 0.2657811,0.48364 -0.00247,0.75315 -0.675967,0.67846 -1.353179,1.35567 -2.0322578,2.03101 -0.2707602,0.26889 -0.4848787,0.27014 -0.7525267,0.004 -0.1985732,-0.1992 -0.3877941,-0.40834 -0.5882186,-0.62121 -0.1033244,0.099 -0.1749057,0.16426 -0.2427507,0.23278 -0.7463024,0.74568 -1.4919824,1.4926 -2.2389071,2.23766 -0.3386059,0.33799 -0.5247146,0.33612 -0.8683001,-0.007 -0.5645634,-0.56417 -1.1316039,-1.12685 -1.69242,-1.69389 -0.16681245,-0.16814 -0.32055516,-0.35042 -0.47927662,-0.52658 z"
       style="fill:#143362;fill-opacity:1;fill-rule:nonzero;stroke:none;stroke-width:0.6224373"
       id="path412"
       inkscape:connector-curvature="0" />
    <path
       d="m 12.602363,292.0105 c -0.112039,-0.22906 -0.280097,-0.37845 -0.547745,-0.31246 -0.256444,0.0635 -0.3218,0.26889 -0.331137,0.51164 -0.06473,1.79262 -1.393637,2.99081 -2.7611317,3.22858 -0.1742829,0.0305 -0.351677,0.0522 -0.5278266,0.0559 -0.2458629,0.005 -0.4456653,0.079 -0.5097762,0.33363 -0.067846,0.26951 0.087764,0.43383 0.3118412,0.54774 h 0.5328062 c 0.040459,-0.0141 0.080294,-0.0362 0.1219969,-0.0429 1.7067232,-0.26391 2.8613442,-1.21437 3.4682202,-2.82212 0.12262,-0.32429 0.163702,-0.67971 0.242751,-1.0208 z"
       style="fill:#143362;fill-opacity:1;fill-rule:nonzero;stroke:none;stroke-width:0.6224373"
       id="path416"
       inkscape:connector-curvature="0" />
    <path
       d="m 8.6543656,294.63095 c 1.2087736,-0.0362 2.2326824,-1.11104 2.2052954,-2.31484 -0.0062,-0.26577 -0.17366,-0.45313 -0.41392,-0.46372 -0.225323,-0.0106 -0.426993,0.18177 -0.453135,0.43259 -0.098345,0.9374 -0.5489897,1.38618 -1.4857582,1.48142 -0.2458623,0.0249 -0.4388182,0.23277 -0.4269915,0.45872 0.014309,0.27202 0.2190978,0.41642 0.5745093,0.40583"
       style="fill:#143362;fill-opacity:1;fill-rule:nonzero;stroke:none;stroke-width:0.6224373"
       id="path420"
       inkscape:connector-curvature="0" />
  </g>
</svg>
